// Jest Snapshot v1, https://goo.gl/fbAQLP

exports[`Button renders 1`] = `
<DocumentFragment>
  <button
    class="MuiButtonBase-root MuiButton-root MuiButton-text Button__StyledButton-sc-1yd18df-0 bLnnFK"
    tabindex="0"
    type="button"
  >
    <span
      class="MuiButton-label"
    >
      Hello World
    </span>
    <span
      class="MuiTouchRipple-root"
    />
  </button>
</DocumentFragment>
`;
